{
	"TileCollection" : [
		{
			"icon" : "sap-icon://factory",
			"number" : "2",
			"numberUnit" : "Outages",
			"title" : "Factory Power Management",
			"info" : "Production On Hold",
			"infoState" : "Error"
		},
		{
			"icon" : "sap-icon://calendar",
			"title" : "Team Calendar"
		},
		{
			"icon" : "sap-icon://pie-chart",
			"number" : "5",
			"title" : "Financial Reports",
			"info" : "4 day ago",
			"infoState" : "Warning"
		}
	]
}